Bayesian Analysis and Decision Theory (BADT)
…
---
# Mixed models

Up until now we worked under the iid data assumption. Sometimes samples in the data may not be independent because:
+ several measurements were collected from the same individual (repeated measurement data), or
+ surveyed individuals share some characteristics (e.g. group membership): pupils in class, athletes in clubs, citizens in countries, etc.

```r
cherry50 <- read_csv("data/mdsr_cherry50.csv")
cherry50
```

```
## # A tibble: 461 × 8
##    name_yob             age sex    year previous nruns gun_time  time
##    <chr>              <dbl> <chr> <dbl>    <dbl> <dbl> <lgl>    <dbl>
##  1 bennett beach 1950    49 M      1999        0     9 TRUE      77.4
##  2 bennett beach 1950    50 M      2000        1     9 FALSE     63.5
##  3 bennett beach 1950    52 M      2002        2     9 FALSE     67.3
##  4 bennett beach 1950    53 M      2003        3     9 FALSE     62.1
##  5 bennett beach 1950    54 M      2004        4     9 FALSE     65.2
##  6 bennett beach 1950    55 M      2005        5     9 FALSE     70.1
##  7 bennett beach 1950    56 M      2006        6     9 FALSE     72.9
##  8 bennett beach 1950    57 M      2007        7     9 TRUE      76.7
##  9 bennett beach 1950    58 M      2008        8     9 TRUE      93.7
## 10 bernard kelly 1956    43 M      1999        0    10 TRUE      89.7
## # … with 451 more rows
```
…
